{
	"info": {
		"_postman_id": "1df9b1a5-2410-4afa-85df-ed93b9e179c9",
		"name": "Restful-APi",
		"schema": "https://schema.getpostman.com/json/collection/v2.0.0/collection.json",
		"_exporter_id": "17430352"
	},
	"item": [
		{
			"name": "Get Random Number",
			"request": {
				"method": "GET",
				"header": [],
				"url": "http://localhost:3000/api/getcreditscore"
			},
			"response": [
				{
					"creditscore": 649
				}
			]
		}
	]
}
